<svg width="375" height="300" viewBox="0 0 375 300" fill="none" xmlns="http://www.w3.org/2000/svg">
<g clip-path="url(#clip0_1578_75320)">
<rect width="375" height="300" fill="#E6FBFF"/>
<path d="M225.91 39H139.336C131.272 39 124.734 45.5499 124.734 53.6296V243.078C124.734 251.158 131.272 257.708 139.336 257.708H225.91C233.974 257.708 240.511 251.158 240.511 243.078V53.6296C240.511 45.5499 233.974 39 225.91 39Z" fill="#444446"/>
<path d="M225.159 44.833H140.369C136.125 44.833 132.685 48.28 132.685 52.532V244.395C132.685 248.647 136.125 252.094 140.369 252.094H225.159C229.403 252.094 232.843 248.647 232.843 244.395V52.532C232.843 48.28 229.403 44.833 225.159 44.833Z" fill="#F9F9FF"/>
<path d="M141.988 118.838V167.183C141.988 168.749 143.389 170.02 145.116 170.02H221.215C222.942 170.02 224.343 168.749 224.343 167.183V118.838C224.343 117.272 222.942 116.002 221.215 116.002H145.11C143.395 116.002 141.988 117.272 141.988 118.838Z" fill="#03A1C7"/>
<path d="M163.389 141.987C166.813 141.987 169.588 139.112 169.588 135.567C169.588 132.021 166.813 129.146 163.389 129.146C159.966 129.146 157.191 132.021 157.191 135.567C157.191 139.112 159.966 141.987 163.389 141.987Z" fill="white"/>
<path d="M163.519 143.315H163.711C166.914 143.315 169.985 144.574 172.25 146.816C174.515 149.058 175.787 152.099 175.787 155.27H151.435C151.435 153.699 151.747 152.144 152.355 150.693C152.962 149.242 153.852 147.924 154.974 146.814C156.097 145.703 157.429 144.823 158.895 144.223C160.361 143.622 161.932 143.314 163.519 143.315Z" fill="white"/>
<path d="M209.732 129.728H182.723V134.599H209.732V129.728Z" fill="white"/>
<path d="M218.144 139.912H182.723V144.783H218.144V139.912Z" fill="white"/>
<path d="M205.747 150.096H182.723V154.966H205.747V150.096Z" fill="white"/>
<path d="M147.753 109.826H141.047C138.838 109.826 137.047 111.617 137.047 113.826V120.532" stroke="#444446"/>
<path d="M217.755 176.122L224.461 176.122C226.671 176.122 228.461 174.331 228.461 172.122L228.461 165.416" stroke="#444446"/>
<path d="M217.755 109.826H224.461C226.671 109.826 228.461 111.617 228.461 113.826V120.532" stroke="#444446"/>
<path d="M147.753 176.122L141.047 176.122C138.838 176.122 137.047 174.331 137.047 172.122L137.047 165.416" stroke="#444446"/>
<path d="M139.336 257.708C166.739 329.429 203.969 326.481 203.969 326.481L222.968 372.973H352L292.343 278.97L220.167 257.128L139.32 257.723L139.336 257.708Z" fill="#BCBCC0"/>
<path d="M264.596 133.222C263.422 128.158 261.513 123.313 261.012 118.138C260.105 108.604 257.1 92.9556 247.272 98.6162C234.862 105.751 234.752 142.725 239.103 154.924C240.198 157.997 240.621 161.259 240.527 164.52C240.402 169.02 240.323 175.277 240.605 181.22C240.887 186.849 239.337 192.4 236.286 197.135C228.492 209.256 215.034 234.423 220.167 257.112C225.441 280.475 256.693 285.399 272.171 286.403C278.65 286.826 285.144 285.023 290.246 280.993C291.138 280.287 291.874 279.597 292.343 278.954C294.706 275.709 292.969 206.528 290.872 200.742C278.634 166.982 269.369 153.811 264.596 133.222Z" fill="#BCBCC0"/>
<path d="M117.755 158.342C116.143 158.17 114.61 157.574 113.326 156.586C106.065 151.035 86.2055 132.783 93.2323 119.283C102.059 102.317 124.719 125.759 124.719 125.759V154.501L121.887 158.797L117.755 158.358V158.342Z" fill="#BCBCC0"/>
<path d="M115.361 195.034C115.361 195.034 99.289 187.021 104.97 175.057C110.651 163.093 123.937 150.706 129.43 155.582C134.923 160.459 141.074 166.794 129.43 187.899C125.768 194.548 115.377 195.034 115.377 195.034H115.361Z" fill="#BCBCC0"/>
<path d="M124.736 236.602C124.736 236.602 108.532 225.874 105.34 212.358C102.867 201.899 124.735 219.358 124.735 219.358L124.736 236.618V236.602Z" fill="#BCBCC0"/>
<path d="M117.567 230.518C117.567 230.518 130.431 212.989 132.105 203.299C133.764 193.671 129.884 189.797 121.636 191.945C113.389 194.093 105.11 204.16 105.157 211.138C105.204 218.115 117.567 230.518 117.567 230.518Z" fill="#BCBCC0"/>
<path d="M124.735 115.19V78.6553C124.735 78.6553 113.608 77.4322 111.73 92.0462C109.852 106.66 124.735 115.175 124.735 115.175V115.19Z" fill="#BCBCC0"/>
</g>
<defs>
<clipPath id="clip0_1578_75320">
<rect width="375" height="300" fill="white"/>
</clipPath>
</defs>
</svg>
